ST558 Homework 3
…
Glass Data

1. Read glass data into R and add column names

library(tidyverse)
library(readr)
#read glass data
glass_data <- read_csv("https://www4.stat.ncsu.edu/~online/datasets/glass.data", 
                       col_names = FALSE, show_col_types = FALSE)
#add column names
names(glass_data) <- c("Id", "RI", "Na", "Mg", "Al", "Si", "K", "ca", "Ba",
                       "Fe", "Type_of_glass")
glass_data

# A tibble: 214 × 11
      Id    RI    Na    Mg    Al    Si     K    ca    Ba    Fe Type_of_glass
   <dbl> <dbl> <dbl> <dbl> <dbl> <dbl> <dbl> <dbl> <dbl> <dbl>         <dbl>
 1     1  1.52  13.6  4.49  1.1   71.8  0.06  8.75     0  0                1
 2     2  1.52  13.9  3.6   1.36  72.7  0.48  7.83     0  0                1
 3     3  1.52  13.5  3.55  1.54  73.0  0.39  7.78     0  0                1
 4     4  1.52  13.2  3.69  1.29  72.6  0.57  8.22     0  0                1
 5     5  1.52  13.3  3.62  1.24  73.1  0.55  8.07     0  0                1
 6     6  1.52  12.8  3.61  1.62  73.0  0.64  8.07     0  0.26             1
 7     7  1.52  13.3  3.6   1.14  73.1  0.58  8.17     0  0                1
 8     8  1.52  13.2  3.61  1.05  73.2  0.57  8.24     0  0                1
 9     9  1.52  14.0  3.58  1.37  72.1  0.56  8.3      0  0                1
10    10  1.52  13    3.6   1.36  73.0  0.57  8.4      0  0.11             1
# ℹ 204 more rows
…
                         "building_windows_non_float_processed", 
                         ifelse(Type_of_glass == 3, 
                                "vehicle_windows_float_processed", 
                                ifelse(Type_of_glass == 4, 
                                       "vehicle_windows_non_float_processed", 
                                       ifelse(Type_of_glass == 5, "containers", 
                                              ifelse(Type_of_glass == 6, 
                                                     "tableware", 
                                                     ifelse(Type_of_glass == 7, 
                                                            "headlamps", 
                                                            Type_of_glass))))
                                )))) |>
  filter(Fe < 0.2, Type_of_glass == "tableware" | Type_of_glass == "headlamps")

# A tibble: 38 × 11
      Id    RI    Na    Mg    Al    Si     K    ca    Ba    Fe Type_of_glass
   <dbl> <dbl> <dbl> <dbl> <dbl> <dbl> <dbl> <dbl> <dbl> <dbl> <chr>        
 1   177  1.52  14    2.39  1.56  72.4  0     9.57  0        0 tableware    
 2   178  1.52  13.8  2.41  1.19  72.8  0     9.77  0        0 tableware    
 3   179  1.52  14.5  2.24  1.62  72.4  0     9.26  0        0 tableware    
 4   180  1.52  14.1  2.19  1.66  72.7  0     9.32  0        0 tableware    
 5   181  1.51  14.4  1.74  1.54  74.6  0     7.59  0        0 tableware    
 6   182  1.52  15.0  0.78  1.74  72.5  0     9.95  0        0 tableware    
 7   183  1.52  14.2  0     2.09  72.7  0    10.9   0        0 tableware    
 8   184  1.52  14.6  0     0.56  73.5  0    11.2   0        0 tableware    
 9   185  1.51  17.4  0     0.34  75.4  0     6.65  0        0 tableware    
10   186  1.51  13.7  3.2   1.81  72.8  1.76  5.43  1.19     0 headlamps    
# ℹ 28 more rows

Yeast Data

1. Read data into R and name columns

#import yeast data
yeast_data <- read_table("https://www4.stat.ncsu.edu/~online/datasets/yeast.data", 
                         col_names = FALSE, show_col_types = FALSE)
#add column names
names(yeast_data) <- c("seq", "mcg", "gvh", "alm", "mit", "erl", "pox", "vac", 
                       "nuc", "class")
yeast_data

# A tibble: 1,484 × 10
   seq          mcg   gvh   alm   mit   erl   pox   vac   nuc class
   <chr>      <dbl> <dbl> <dbl> <dbl> <dbl> <dbl> <dbl> <dbl> <chr>
 1 ADT1_YEAST  0.58  0.61  0.47  0.13   0.5   0    0.48  0.22 MIT  
 2 ADT2_YEAST  0.43  0.67  0.48  0.27   0.5   0    0.53  0.22 MIT  
 3 ADT3_YEAST  0.64  0.62  0.49  0.15   0.5   0    0.53  0.22 MIT  
 4 AAR2_YEAST  0.58  0.44  0.57  0.13   0.5   0    0.54  0.22 NUC  
 5 AATM_YEAST  0.42  0.44  0.48  0.54   0.5   0    0.48  0.22 MIT  
 6 AATC_YEAST  0.51  0.4   0.56  0.17   0.5   0.5  0.49  0.22 CYT  
 7 ABC1_YEAST  0.5   0.54  0.48  0.65   0.5   0    0.53  0.22 MIT  
 8 BAF1_YEAST  0.48  0.45  0.59  0.2    0.5   0    0.58  0.34 NUC  
 9 ABF2_YEAST  0.55  0.5   0.66  0.36   0.5   0    0.49  0.22 MIT  
10 ABP1_YEAST  0.4   0.39  0.6   0.15   0.5   0    0.58  0.3  CYT  
# ℹ 1,474 more rows

2, 3. Remove columns and add statistics columns

yeast_data |>
  select(mcg, gvh, alm, mit, erl, pox, vac, class) |>
  mutate(across(where(is.numeric), mean, .names = "mean_{.col}")) |>
  mutate(across(where(is.numeric), median, .names = "median_{.col}"))

# A tibble: 1,484 × 29
     mcg   gvh   alm   mit   erl   pox   vac class mean_mcg mean_gvh mean_alm
   <dbl> <dbl> <dbl> <dbl> <dbl> <dbl> <dbl> <chr>    <dbl>    <dbl>    <dbl>
 1  0.58  0.61  0.47  0.13   0.5   0    0.48 MIT      0.500    0.500    0.500
 2  0.43  0.67  0.48  0.27   0.5   0    0.53 MIT      0.500    0.500    0.500
 3  0.64  0.62  0.49  0.15   0.5   0    0.53 MIT      0.500    0.500    0.500
 4  0.58  0.44  0.57  0.13   0.5   0    0.54 NUC      0.500    0.500    0.500
 5  0.42  0.44  0.48  0.54   0.5   0    0.48 MIT      0.500    0.500    0.500
 6  0.51  0.4   0.56  0.17   0.5   0.5  0.49 CYT      0.500    0.500    0.500
 7  0.5   0.54  0.48  0.65   0.5   0    0.53 MIT      0.500    0.500    0.500
 8  0.48  0.45  0.59  0.2    0.5   0    0.58 NUC      0.500    0.500    0.500
 9  0.55  0.5   0.66  0.36   0.5   0    0.49 MIT      0.500    0.500    0.500
10  0.4   0.39  0.6   0.15   0.5   0    0.58 CYT      0.500    0.500    0.500
# ℹ 1,474 more rows
# ℹ 18 more variables: mean_mit <dbl>, mean_erl <dbl>, mean_pox <dbl>,
#   mean_vac <dbl>, median_mcg <dbl>, median_gvh <dbl>, median_alm <dbl>,
#   median_mit <dbl>, median_erl <dbl>, median_pox <dbl>, median_vac <dbl>,
#   median_mean_mcg <dbl>, median_mean_gvh <dbl>, median_mean_alm <dbl>,
#   median_mean_mit <dbl>, median_mean_erl <dbl>, median_mean_pox <dbl>,
#   median_mean_vac <dbl>

Task 2.Combining Excel and Delimited Data

1. Import white wine data

#import white wine data
library(readxl)
white_wine_data <- read_excel("white-wine.xlsx", sheet = 
                                excel_sheets("white-wine.xlsx")[1])
white_wine_data

# A tibble: 4,898 × 12
   `fixed acidity` `volatile acidity` `citric acid` `residual sugar` chlorides
             <dbl>              <dbl>         <dbl>            <dbl>     <dbl>
 1               7               0.27          0.36             20.7     0.045
 2              63               0.3           0.34              1.6     0.049
 3              81               0.28          0.4               6.9     0.05 
 4              72               0.23          0.32              8.5     0.058
 5              72               0.23          0.32              8.5     0.058
 6              81               0.28          0.4               6.9     0.05 
 7              62               0.32          0.16              7       0.045
 8               7               0.27          0.36             20.7     0.045
 9              63               0.3           0.34              1.6     0.049
10              81               0.22          0.43              1.5     0.044
# ℹ 4,888 more rows
# ℹ 7 more variables: `free sulfur dioxide` <dbl>,
#   `total sulfur dioxide` <dbl>, density <dbl>, pH <dbl>, sulphates <dbl>,
#   alcohol <dbl>, quality <dbl>
…
#import sheet 2
white_wine_sheet2 <- read_excel("white-wine.xlsx", sheet = 
                                excel_sheets("white-wine.xlsx")[2])
#assign column names to sheet 1 using sheet 2
colnames(white_wine_data)<- white_wine_sheet2$Variables

3. Add wine type column to white wine set

white_wine_data <-
  white_wine_data |>
  mutate(type = "white")
white_wine_data

# A tibble: 4,898 × 13
   fixed_acidity volatile_acidity citric_acid residual_sugar chlorides
           <dbl>            <dbl>       <dbl>          <dbl>     <dbl>
 1             7             0.27        0.36           20.7     0.045
 2            63             0.3         0.34            1.6     0.049
 3            81             0.28        0.4             6.9     0.05 
 4            72             0.23        0.32            8.5     0.058
 5            72             0.23        0.32            8.5     0.058
 6            81             0.28        0.4             6.9     0.05 
 7            62             0.32        0.16            7       0.045
 8             7             0.27        0.36           20.7     0.045
 9            63             0.3         0.34            1.6     0.049
10            81             0.22        0.43            1.5     0.044
# ℹ 4,888 more rows
# ℹ 8 more variables: free_sulfur_dioxide <dbl>, total_sulfur_dioxide <dbl>,
#   density <dbl>, pH <dbl>, sulphates <dbl>, alcohol <dbl>, quality <dbl>,
#   type <chr>
…
ℹ Use `spec()` to retrieve the full column specification for this data.
ℹ Specify the column types or set `show_col_types = FALSE` to quiet this message.

#assign column names to red wine data from white wine sheet 2
colnames(red_wine_data)<- white_wine_sheet2$Variables
#add type column
red_wine_data <-
  red_wine_data |>
  mutate(type = "red")
red_wine_data

# A tibble: 1,599 × 13
   fixed_acidity volatile_acidity citric_acid residual_sugar chlorides
           <dbl>            <dbl>       <dbl>          <dbl>     <dbl>
 1           7.4             0.7         0               1.9     0.076
 2           7.8             0.88        0               2.6     0.098
 3           7.8             0.76        0.04            2.3     0.092
 4          11.2             0.28        0.56            1.9     0.075
 5           7.4             0.7         0               1.9     0.076
 6           7.4             0.66        0               1.8     0.075
 7           7.9             0.6         0.06            1.6     0.069
 8           7.3             0.65        0               1.2     0.065
 9           7.8             0.58        0.02            2       0.073
10           7.5             0.5         0.36            6.1     0.071
# ℹ 1,589 more rows
# ℹ 8 more variables: free_sulfur_dioxide <dbl>, total_sulfur_dioxide <dbl>,
#   density <dbl>, pH <dbl>, sulphates <dbl>, alcohol <dbl>, quality <dbl>,
#   type <chr>

5. Combine wine data sets

wine_data <- dplyr::bind_rows(white_wine_data, red_wine_data)
wine_data

# A tibble: 6,497 × 13
   fixed_acidity volatile_acidity citric_acid residual_sugar chlorides
           <dbl>            <dbl>       <dbl>          <dbl>     <dbl>
 1             7             0.27        0.36           20.7     0.045
 2            63             0.3         0.34            1.6     0.049
 3            81             0.28        0.4             6.9     0.05 
 4            72             0.23        0.32            8.5     0.058
 5            72             0.23        0.32            8.5     0.058
 6            81             0.28        0.4             6.9     0.05 
 7            62             0.32        0.16            7       0.045
 8             7             0.27        0.36           20.7     0.045
 9            63             0.3         0.34            1.6     0.049
10            81             0.22        0.43            1.5     0.044
# ℹ 6,487 more rows
# ℹ 8 more variables: free_sulfur_dioxide <dbl>, total_sulfur_dioxide <dbl>,
#   density <dbl>, pH <dbl>, sulphates <dbl>, alcohol <dbl>, quality <dbl>,
#   type <chr>

6-9. filter, sort, select, and statistics chains

wine_data |>
  filter(quality > 6.5 & alcohol < 132) |>
  arrange(desc(quality)) |>
  select(fixed_acidity:citric_acid, alcohol, type, quality) |>
  group_by(quality) |>
  mutate(alcohol_mean = mean(alcohol), alcohol_sd = sd(alcohol))

# A tibble: 1,206 × 8
# Groups:   quality [3]
   fixed_acidity volatile_acidity citric_acid alcohol type  quality alcohol_mean
           <dbl>            <dbl>       <dbl>   <dbl> <chr>   <dbl>        <dbl>
 1            91             0.27        0.45     104 white       9        122. 
 2            66             0.36        0.29     124 white       9        122. 
 3            74             0.24        0.36     125 white       9        122. 
 4            69             0.36        0.34     127 white       9        122. 
 5            71             0.26        0.49     129 white       9        122. 
 6            62             0.66        0.48     128 white       8         94.1
 7            62             0.66        0.48     128 white       8         94.1
 8            68             0.26        0.42     105 white       8         94.1
 9            67             0.23        0.31     107 white       8         94.1
10            67             0.23        0.31     107 white       8         94.1
# ℹ 1,196 more rows
# ℹ 1 more variable: alcohol_sd <dbl>
…
combined_hof_table <- hall_of_fame_table |>
  left_join(first_last |> select(playerID, nameFirst, nameLast)) |>
  collect()

Joining with `by = join_by(playerID)`

combined_hof_table

# A tibble: 340 × 5
   playerID  yearID category          nameFirst nameLast 
   <chr>      <int> <chr>             <chr>     <chr>    
 1 cobbty01    1936 Player            Ty        Cobb     
 2 ruthba01    1936 Player            Babe      Ruth     
 3 wagneho01   1936 Player            Honus     Wagner   
 4 mathech01   1936 Player            Christy   Mathewson
 5 johnswa01   1936 Player            Walter    Johnson  
 6 lajoina01   1937 Player            Nap       Lajoie   
 7 speaktr01   1937 Player            Tris      Speaker  
 8 youngcy01   1937 Player            Cy        Young    
 9 bulkemo99   1937 Pioneer/Executive Morgan    Bulkeley 
10 johnsba99   1937 Pioneer/Executive Ban       Johnson  
# ℹ 330 more rows

6.Manipulate “Managers” table

managers_table <- tbl(con, "Managers") |>
  select(playerID, G, W, L) |>
  group_by(playerID) |>
  summarize(G_managed = sum(G, na.rm = TRUE), 
            Total_W = sum(W, na.rm = TRUE),
            Total_L = sum(L, na.rm = TRUE)) |>
  collect() |>
  mutate(win_loss_percentage = Total_W / G_managed)
managers_table

# A tibble: 749 × 5
   playerID  G_managed Total_W Total_L win_loss_percentage
   <chr>         <int>   <int>   <int>               <dbl>
 1 actama99        890     372     518              0.418 
 2 adairbi99        10       4       6              0.4   
 3 adcocjo01       162      75      87              0.463 
 4 addybo01         31       8      23              0.258 
 5 allenbo01       179      87      87              0.486 
 6 allisdo01        23       2      21              0.0870
 7 alomasa02        13       8       5              0.615 
 8 aloufe01       2053    1033    1020              0.503 
 9 alstowa01      3658    2040    1613              0.558 
10 altobjo01       844     437     407              0.518 
# ℹ 739 more rows

7. Return those who were in hall of fame and managed a team

manage_hof_table <- combined_hof_table |>
  inner_join(managers_table, join_by(playerID))
manage_hof_table

# A tibble: 97 × 9
   playerID  yearID category        nameFirst nameLast G_managed Total_W Total_L
   <chr>      <int> <chr>           <chr>     <chr>        <int>   <int>   <int>
 1 cobbty01    1936 Player          Ty        Cobb           933     479     444
 2 wagneho01   1936 Player          Honus     Wagner           5       1       4
 3 mathech01   1936 Player          Christy   Mathews…       346     164     176
 4 johnswa01   1936 Player          Walter    Johnson        966     529     432
 5 lajoina01   1937 Player          Nap       Lajoie         700     377     309
 6 speaktr01   1937 Player          Tris      Speaker       1139     617     520
 7 youngcy01   1937 Player          Cy        Young            6       3       3
 8 mackco01    1937 Manager         Connie    Mack          7755    3731    3948
 9 mcgrajo01   1937 Manager         John      McGraw        4769    2763    1948
10 wrighge01   1937 Pioneer/Execut… George    Wright          85      59      25
# ℹ 87 more rows
# ℹ 1 more variable: win_loss_percentage <dbl>
…
